{
  "context": {},
  "items": [
    {
      "tenant": {
        "id": "20000000-0000-0000-0000-000000000001"
      },
      "account": {
        "id": "30000000-0000-0000-0000-000000000001"
      },
      "writeAccess": false
    },
    {
      "tenant": {
        "id": "20000000-0000-0000-0000-000000000001"
      },
      "account": {
        "id": "30000000-0000-0000-0000-000000000002"
      },
      "writeAccess": true
    },
    {
      "tenant": {
        "id": "20000000-0000-0000-0000-000000000002"
      },
      "account": {
        "id": "30000000-0000-0000-0000-000000000004"
      },
      "writeAccess": true
    }
  ]
}
