{
  "context": {},
  "items": [
    {
      "id": "1e1776a3b7a4da64b8d988d2454fb27d743117d88d7f2a9e930867973b0f2305",
      "account": {
        "id": "30000000-0000-0000-0000-000000000001"
      },
      "xsrfSalt": "CsRYWKo15l48"
    },
    {
      "id": "d960658e01893997d7fc90ab389c49aa53f7c556ecd138c6babe37644b7d223d",
      "account": {
        "id": "30000000-0000-0000-0000-000000000002"
      },
      "xsrfSalt": "80A9w2urD4Pz"
    }
  ]
}
