{
  "type": "postgres",
  "host": "postgres",
  "port": 5432,
  "username": "peerdom",
  "password": "peerdom",
  "database": "peerdom",
  "synchronize": false,
  "logging": false,
  "entities": ["build/src/entity/**/*.js"],
  "migrations": ["build/src/migration/**/*.js"],
  "subscribers": ["build/src/subscribers/**/*.js"],
  "cli": {
    "entitiesDir": "src/entity",
    "migrationsDir": "src/migration",
    "subscribersDir": "src/subscribers"
  }
}
