{
  "context": {
    "author": {
      "id": "30000000-0000-0000-0000-000000000002"
    },
    "tenant": {
      "id": "20000000-0000-0000-0000-000000000001"
    }
  },
  "items": [
    {
      "id": "80000000-4000-0000-0000-000000000001",
      "electedUntil": "2018-06-30",
      "role": {
        "id": "40000000-2000-0000-0000-000000000031"
      },
      "peer": {
        "id": "10000000-0000-0000-0000-000000000001"
      }
    },
    {
      "id": "80000000-4000-0000-0000-000000000002",
      "electedUntil": "2018-06-30",
      "role": {
        "id": "40000000-2000-0000-0000-000000000032"
      },
      "peer": {
        "id": "10000000-0000-0000-0000-000000000002"
      }
    },
    {
      "id": "80000000-4000-0000-0000-000000000003",
      "electedUntil": "2018-06-30",
      "role": {
        "id": "40000000-2000-0000-0000-000000000033"
      },
      "peer": {
        "id": "10000000-0000-0000-0000-000000000002"
      }
    },
    {
      "id": "80000000-4000-0000-0000-000000000004",
      "electedUntil": "2018-06-30",
      "role": {
        "id": "40000000-2000-0000-0000-000000000034"
      },
      "peer": {
        "id": "10000000-0000-0000-0000-000000000003"
      }
    },
    {
      "id": "80000000-4000-0000-0000-000000000005",
      "focus": "Frontend UI and logic, models",
      "role": {
        "id": "40000000-3000-0000-0000-000000000011"
      },
      "peer": {
        "id": "10000000-0000-0000-0000-000000000004"
      }
    },
    {
      "id": "80000000-4000-0000-0000-000000000006",
      "focus": "Backend, infrastructure",
      "role": {
        "id": "40000000-3000-0000-0000-000000000011"
      },
      "peer": {
        "id": "10000000-0000-0000-0000-000000000003"
      }
    },
    {

      "id": "80000000-4000-0000-0000-000000000007",
      "role": {
        "id": "40000000-3000-0000-0000-000000000012"
      },
      "peer": {
        "id": "10000000-0000-0000-0000-000000000005"
      }
    },
    {
      "id": "80000000-4000-0000-0000-000000000008",
      "focus": "Backend, infrastructure technology",
      "role": {
        "id": "40000000-3000-0000-0000-000000000013"
      },
      "peer": {
        "id": "10000000-0000-0000-0000-000000000007"
      }
    },
    {
      "id": "80000000-4000-0000-0000-000000000009",
      "focus": "Frontend, accessibility",
      "role": {
        "id": "40000000-3000-0000-0000-000000000013"
      },
      "peer": {
        "id": "10000000-0000-0000-0000-000000000003"
      }
    },
    {
      "id": "80000000-4000-0000-0000-000000000010",
      "role": {
        "id": "40000000-3000-0000-0000-000000000014"
      },
      "peer": {
        "id": "10000000-0000-0000-0000-000000000008"
      }
    },
    {
      "id": "80000000-4000-0000-0000-000000000011",
      "role": {
        "id": "40000000-3000-0000-0000-000000000015"
      },
      "peer": {
        "id": "10000000-0000-0000-0000-000000000009"
      }
    },
    {
      "id": "80000000-4000-0000-0000-000000000012",
      "role": {
        "id": "40000000-3000-0000-0000-000000000016"
      },
      "peer": {
        "id": "10000000-0000-0000-0000-000000000002"
      }
    },
    {
      "id": "80000000-4000-0000-0000-000000000013",
      "role": {
        "id": "40000000-3000-0000-0000-000000000017"
      },
      "peer": {
        "id": "10000000-0000-0000-0000-000000000010"
      }
    },
    {
      "id": "80000000-4000-0000-0000-000000000014",
      "role": {
        "id": "40000000-3000-0000-0000-000000000018"
      },
      "peer": {
        "id": "10000000-0000-0000-0000-000000000002"
      }
    }
  ]
}
