{
  "context": {
    "author": {
      "id": "30000000-0000-0000-0000-000000000002"
    },
    "tenant": {
      "id": "20000000-0000-0000-0000-000000000001"
    }
  },
  "items": [
    {
      "id": "80000000-2000-0000-0000-000000000001",
      "electedUntil": "2018-06-30",
      "role": {
        "id": "40000000-2000-0000-0000-000000000061"
      },
      "peer": {
        "id": "10000000-0000-0000-0000-000000000005"
      }
    },
    {
      "id": "80000000-2000-0000-0000-000000000002",
      "electedUntil": "2018-06-30",
      "role": {
        "id": "40000000-2000-0000-0000-000000000062"
      },
      "peer": {
        "id": "10000000-0000-0000-0000-000000000006"
      }
    },
    {
      "id": "80000000-2000-0000-0000-000000000003",
      "electedUntil": "2018-06-30",
      "role": {
        "id": "40000000-2000-0000-0000-000000000063"
      },
      "peer": {
        "id": "10000000-0000-0000-0000-000000000007"
      }
    },
    {
      "id": "80000000-2000-0000-0000-000000000004",
      "electedUntil": "2018-06-30",
      "role": {
        "id": "40000000-2000-0000-0000-000000000064"
      },
      "peer": {
        "id": "10000000-0000-0000-0000-000000000008"
      }
    },
    {
      "id": "80000000-2000-0000-0000-000000000005",
      "role": {
        "id": "40000000-3000-0000-0000-000000000003"
      },
      "peer": {
        "id": "10000000-0000-0000-0000-000000000001"
      },
      "focus": "Group Settings"
    },
    {
      "id": "80000000-2000-0000-0000-000000000006",
      "role": {
        "id": "40000000-3000-0000-0000-000000000003"
      },
      "peer": {
        "id": "10000000-0000-0000-0000-000000000010"
      },
      "focus": "French"
    },
    {
      "id": "80000000-2000-0000-0000-000000000007",
      "role": {
        "id": "40000000-3000-0000-0000-000000000004"
      },
      "peer": {
        "id": "10000000-0000-0000-0000-000000000002"
      }
    },
    {
      "id": "80000000-2000-0000-0000-000000000008",
      "role": {
        "id": "40000000-3000-0000-0000-000000000005"
      },
      "peer": {
        "id": "10000000-0000-0000-0000-000000000002"
      }
    },
    {
      "id": "80000000-2000-0000-0000-000000000009",
      "role": {
        "id": "40000000-3000-0000-0000-000000000006"
      },
      "peer": {
        "id": "10000000-0000-0000-0000-000000000003"
      },
      "focus": "low-complexity"
    },
    {
      "id": "80000000-2000-0000-0000-000000000010",
      "role": {
        "id": "40000000-3000-0000-0000-000000000006"
      },
      "peer": {
        "id": "10000000-0000-0000-0000-000000000006"
      },
      "focus": "high-complexity"
    }
  ]
}
